[
{
  "model": "auth.user",
  "pk": 1,
  "fields": {
    "password": "pbkdf2_sha256$150000$xaMeLZO9dyf3$w88kroD2evA6VQ57ojnrSAjoo2IEnCYHCbtvK5q/0mk=",
    "last_login": "2020-03-14T11:43:37.353Z",
    "is_superuser": true,
    "username": "admin",
    "first_name": "",
    "last_name": "",
    "email": "",
    "is_staff": true,
    "is_active": true,
    "date_joined": "2020-03-14T10:05:54.128Z",
    "groups": [],
    "user_permissions": []
  }
}
]
